{
  "accountId":"62d04682-90da-41fe-b2cb-aa8aa9f15c26",
  "instanceMapping": [
    {
      "SAPinstance":"sapsrv02_DE1_14",
      "IntanceName": "SAP_Ins1"
    },
    {
      "SAPinstance":"sapsrv02_DE1_10",
      "IntanceName": "SAP_Ins2"
    }
  ],
  "transAgent": "63eb00cc-576f-4223-a368-574dfc3b5028",
  "kpiPrefix": "",
  "kpiPostfix": "",
  "ruleId": "80",
  "transRule":"|srv=ECC_QAS_CS|acc=5",
  "readTimeOut": "120000",
  "grpcPort":"11000",
  "configDSIp":"52.43.131.180",
  "dsTranUrlEndpoint" :"/appsone-controlcenter/v1.0/api/62d04682-90da-41fe-b2cb-aa8aa9f15c26/addTransaction",
  "dsTranFileName" : "config/config_Tx.json",
  "dsUrlEndpoint" :"/appsone-controlcenter/v1.0/api/configData",
  "dsFileName" : "config/configDS_data.json",
  "configDSPort":"8443",
  "chunkSize" :"60",
  "hostName" : "keycloak.appnomic",
  "useSSLProtocol": true,
  "formatOfTimestamp": "yyyy-MM-dd HH:mm:00",
  "sslVersion": "TLSv1.2",
  "discoverFileName" : "config/discovery_Tx.json",
}